…
# Select only the columns mentioned above.
loan = loan %>%
        select(loan_status , loan_amnt , int_rate , grade , emp_length , home_ownership , 
               annual_inc , term)
loan

## # A tibble: 887,379 x 8
##    loan_status loan_amnt int_rate grade emp_length home_ownership
##    <chr>           <dbl>    <dbl> <chr> <chr>      <chr>         
##  1 Fully Paid       5000     10.6 B     10+ years  RENT          
##  2 Charged Off      2500     15.3 C     < 1 year   RENT          
##  3 Fully Paid       2400     16.0 C     10+ years  RENT          
##  4 Fully Paid      10000     13.5 C     10+ years  RENT          
##  5 Current          3000     12.7 B     1 year     RENT          
##  6 Fully Paid       5000      7.9 A     3 years    RENT          
##  7 Current          7000     16.0 C     8 years    RENT          
##  8 Fully Paid       3000     18.6 E     9 years    RENT          
##  9 Charged Off      5600     21.3 F     4 years    OWN           
## 10 Charged Off      5375     12.7 B     < 1 year   RENT          
## # ... with 887,369 more rows, and 2 more variables: annual_inc <dbl>,
## #   term <chr>
…
